fpu_tb.vcd
$date
	Thu Jul 28 23:53:53 2022
$end
$version
	Questa Intel Starter FPGA Edition Version 2021.2
$end
$timescale
	100ps
$end

$scope module fpu_tb $end
$var reg 1 ! clock $end
$var reg 32 " a [31:0] $end
$var reg 32 # b [31:0] $end
$var reg 2 $ op [1:0] $end
$var wire 1 % out [31] $end
$var wire 1 & out [30] $end
$var wire 1 ' out [29] $end
$var wire 1 ( out [28] $end
$var wire 1 ) out [27] $end
$var wire 1 * out [26] $end
$var wire 1 + out [25] $end
$var wire 1 , out [24] $end
$var wire 1 - out [23] $end
$var wire 1 . out [22] $end
$var wire 1 / out [21] $end
$var wire 1 0 out [20] $end
$var wire 1 1 out [19] $end
$var wire 1 2 out [18] $end
$var wire 1 3 out [17] $end
$var wire 1 4 out [16] $end
$var wire 1 5 out [15] $end
$var wire 1 6 out [14] $end
$var wire 1 7 out [13] $end
$var wire 1 8 out [12] $end
$var wire 1 9 out [11] $end
$var wire 1 : out [10] $end
$var wire 1 ; out [9] $end
$var wire 1 < out [8] $end
$var wire 1 = out [7] $end
$var wire 1 > out [6] $end
$var wire 1 ? out [5] $end
$var wire 1 @ out [4] $end
$var wire 1 A out [3] $end
$var wire 1 B out [2] $end
$var wire 1 C out [1] $end
$var wire 1 D out [0] $end
$upscope $end
$enddefinitions $end
#0
$dumpvars
0!
b1000100000011111001010000011010 "
b10100011000011111100111111010101 #
b10 $
xD
xC
xB
xA
x@
x?
x>
x=
x<
x;
x:
x9
x8
x7
x6
x5
x4
x3
x2
x1
x0
x/
x.
x-
x,
x+
x*
x)
x(
x'
x&
x%
$end
#1000
1!
#2000
0!
#3000
1!
1%
1D
1C
0B
1A
0@
1?
0>
1=
1<
1;
0:
19
18
17
16
15
04
03
12
01
10
0/
0.
0-
0,
1+
0*
0)
0(
1'
1&
#4000
b10001000100111011011110010001010 "
b10110111000110001011000110101 #
0!
#5000
1!
#6000
0!
#7000
1!
0C
0A
0?
1>
0<
1:
09
08
07
06
05
11
1/
1.
1,
1(
0&
#8000
b10110111111010110111111010001110 "
b10011010011101100000110001001000 #
0!
#9000
1!
#10000
0!
#11000
1!
0%
0D
1C
1@
1?
0>
16
15
13
02
01
00
0/
1*
1)
0'
1&
#12000
b1101100000110010011110110011001 "
b1100000101010101100111110110111 #
0!
#13000
1!
#14000
0!
#15000
1!
1D
0C
1B
0@
0?
1>
19
06
05
11
10
1/
1-
0,
0+
0(
#16000
b1000100110100111100011101110101 "
b11000110110111010010001001010111 #
0!
#17000
1!
#18000
0!
#19000
1!
1%
1@
0>
0;
17
16
03
12
01
00
0/
0.
1,
1+
1(
1'
0&
#20000
b1101000111000011010011011001110 "
b1101111010000000111011000101000 #
0!
#21000
1!
#22000
0!
#23000
1!
0%
0D
1C
1A
1<
1;
0:
09
18
06
14
13
10
0-
0*
#24000
b11000011001101010011111100 "
b10000110100111000110110010010001 #
0!
#25000
1!
#26000
0!
#27000
1!
1%
1D
0A
0@
1?
0=
0<
0;
1:
19
08
07
16
1/
1-
0+
1*
#28000
b101000001101011111100100110100 "
b1001101001001110100110001100 #
0!
#29000
1!
#30000
0!
#31000
1!
0%
0D
0B
1>
1<
1;
0:
17
06
15
04
11
00
0/
1.
1+
0'
1&
#32000
b11001110100001010011011100100101 "
b11001010111000111101000000111011 #
0!
#33000
1!
#34000
0!
#35000
1!
1B
1A
1@
0>
1=
0<
1:
05
14
02
10
0-
0+
0)
0(
#36000
b11110011100000011110110010011100 "
b11110010111011110001101001010001 #
0!
#37000
1!
#38000
0!
#39000
1!
1D
1>
07
04
12
01
00
1/
0.
0,
1+
0*
#40000
b1010101000000110010101110010010 "
b1011101101000101000111101101110 #
0!
#41000
1!
#42000
0!
#43000
1!
0A
0@
0>
1<
0:
18
17
03
02
0/
1,
0+
1)
1(
1'
0&
#44000
b10111110101100010100100101101 "
b1000000001011110000110001100001 #
0!
#45000
1!
#46000
0!
#47000
1!
1A
1@
1>
0=
0<
1:
08
1/
1.
1-
0,
0'
#48000
b111101011010001010101000100001 "
b11010010100110010010101011111101 #
0!
#49000
1!
#50000
0!
#51000
1!
1%
0B
1=
1<
07
15
14
10
1,
1+
0(
1'
#52000
b100010000001011000001111111000 "
b1010101100101010010011011010010 #
0!
#53000
1!
#54000
0!
#55000
1!
0%
0D
0C
1B
0A
0@
0?
0=
0<
0;
0:
18
13
12
11
00
0/
0+
1*
0'
#56000
b10100000111010110000001110110101 "
b10001001010111001111101100000 #
0!
#57000
1!
#58000
0!
#59000
1!
1%
1C
0B
1A
1@
1?
0>
1=
1<
09
08
16
05
03
02
0-
0*
0)
1(
1&
#60000
b1001101010101111100101101111101 "
b1010111001101101110110000111100 #
0!
#61000
1!
#62000
0!
#63000
1!
0%
1D
0C
0@
0?
0<
1:
06
15
13
12
1/
0.
1-
1+
1*
1'
0&
#64000
b1011110011110011001100010101000 "
b11111111000001111001000011110011 #
0!
#65000
1!
#66000
0!
#67000
1!
1%
0D
1B
1?
1>
0=
1<
1;
16
02
01
0/
0,
0+
0*
0(
#68000
b10010011011101000011011110110100 "
b10101111110001001011111011110000 #
0!
#69000
1!
#70000
0!
#71000
1!
0%
1D
1C
0A
1@
0>
0<
0;
0:
19
06
04
11
1.
0-
1,
1*
#72000
b10111010101001110100111011000 "
b11010101000011101010011011000000 #
0!
#73000
1!
#74000
0!
#75000
1!
1%
0D
0C
1A
0?
1>
1<
1;
1:
17
14
03
1-
1+
0*
0'
#76000
b1011111111011011100011100110011 "
b10101001101011001100110000111100 #
0!
#77000
1!
#78000
0!
#79000
1!
1?
0>
0;
0:
07
16
05
04
13
10
1*
1(
1'
1&
#80000
b10000000011011000011001000100000 "
b111000010101100100000110011100 #
0!
#81000
1!
#82000
0!
#83000
1!
1D
1C
0A
0@
0?
1>
1;
1:
09
17
06
15
14
03
00
0+
0*
1)
0(
0'
0&
#84000
b110010011100000001001101111011 "
b111101100001011110010100010101 #
0!
#85000
1!
#86000
0!
#87000
1!
0%
0B
1@
1=
0<
05
13
10
0-
0,
1+
1*
0)
1(
1'
#88000
b111101110101010101111101010010 "
b1010100100110111110011000001001 #
0!
#89000
1!
#90000
0!
#91000
1!
0D
1B
1A
0@
1?
0>
0:
18
16
15
03
12
01
00
0.
1-
0*
1)
0(
#92000
b1111110100100100100000111010000 "
b11110101110001101001001111001000 #
0!
#93000
1!
#94000
0!
#95000
1!
1%
1D
0B
0A
0?
0=
0;
1:
19
07
06
04
0'
1&
#96000
b11111101001010101011110101111111 "
b1111101011100001011101111100101 #
0!
#97000
1!
#98000
0!
#99000
1!
1B
1@
1=
1<
08
05
02
11
1/
1.
0-
1,
0+
0)
#100000
b10111100010001010010011100011110 "
b11110010110111110000101100010001 #
0!
#101000
1!
#102000
0!
#103000
1!
0%
0D
0C
0B
1A
1?
1>
0<
1;
0:
18
17
16
14
12
01
0/
0.
1+
1)
0&
#104000
b10110110010111101011101011001101 "
b11110101010010001110111010011011 #
0!
#105000
1!
#106000
0!
#107000
1!
1D
1C
1B
0A
0@
0>
0=
1:
07
06
04
13
02
1/
1.
0,
0)
#108000
b10000100111010001000110001111101 "
b10010000101100111000000110011101 #
0!
#109000
1!
#110000
0!
#111000
1!
0C
0B
1=
1<
17
15
03
12
11
10
0/
0.
1-
1,
0+
1*
1(
1'
#112000
b1011100111001101001101001100011 "
b1111000100100000101111010010011 #
0!
#113000
1!
#114000
0!
#115000
1!
1B
0?
0=
0:
09
08
16
14
02
1/
1.
0-
0(
#116000
b11011001000101011011001110000111 "
b1110111001010000110011010000000 #
0!
#117000
1!
#118000
0!
#119000
1!
1%
1A
1=
0<
0;
06
05
13
01
0/
1+
0*
#120000
b1000010101011101110101101011011 "
b11101001100101100101001110011101 #
0!
#121000
1!
#122000
0!
#123000
1!
1?
1;
1:
19
04
03
12
0.
1-
0,
1)
1(
0'
#124000
b100111101111101100101110110011 "
b10000011100100111010010101011011 #
0!
#125000
1!
#126000
0!
#127000
1!
1C
0B
0?
1>
0=
0;
0:
15
00
1,
0+
1*
0)
0(
1'
1&
#128000
b11100000011011011011000110011101 "
b11011110001111101011001001011000 #
0!
#129000
1!
#130000
0!
#131000
1!
0%
0C
1B
0A
1@
1?
0>
1<
18
07
14
02
10
1+
0*
0'
#132000
b1011000101010111101010011000011 "
b1011001101101100011001011011001 #
0!
#133000
1!
#134000
0!
#135000
1!
0D
0B
1A
0?
0<
1:
16
05
04
13
12
00
0,
0+
#136000
b101100101000100001011010010001 "
b10010001010100101100100101010110 #
0!
#137000
1!
#138000
0!
#139000
1!
1%
1B
0A
0@
1=
1<
1;
09
06
15
14
03
02
0-
1,
1*
1)
1(
#140000
b1000110011011111100000011100110 "
b1010101101111111010000110100111 #
0!
#141000
1!
#142000
0!
#143000
1!
0%
1C
1>
0=
0<
0;
0:
19
08
05
04
13
11
10
0,
1+
0*
0)
1'
0&
#144000
b11111001000111111101111000111011 "
b1101000110001111100000001110101 #
0!
#145000
1!
#146000
0!
#147000
1!
1%
1D
0B
1@
1=
1:
09
17
16
14
03
0'
1&
#148000
b11000000000110101100011101100111 "
b1101111101111010101001101100010 #
0!
#149000
1!
#150000
0!
#151000
1!
1B
1A
0@
0>
0=
1<
18
06
15
04
01
1/
1-
1,
0+
0&
#152000
b10000101111110110110001010110001 "
b10100101011110100001000010101011 #
0!
#153000
1!
#154000
0!
#155000
1!
0%
0C
0A
1;
0:
19
07
16
05
1.
0-
0,
1+
0(
1'
#156000
b11011111111010110110011000011111 "
b11000000100100101111110100101100 #
0!
#157000
1!
#158000
0!
#159000
1!
1@
1?
0<
0;
1:
08
15
14
13
11
0/
0.
1-
0+
1&
#160000
b1010011000000010000001010110100 "
b1110110000100010101001010100000 #
0!
#161000
1!
#162000
0!
#163000
1!
0D
1C
0B
1A
0@
1;
09
18
17
05
04
12
01
0-
1+
1*
1)
1(
0'
0&
#164000
b11001001010110000000100011110001 "
b1110101100011101000000001001011 #
0!
#165000
1!
#166000
0!
#167000
1!
1%
1B
0?
1>
1<
0;
0:
19
06
02
11
00
1.
1,
0+
0)
#168000
b1010010101010010001100111001001 "
b10010111100111010010110011001011 #
0!
#169000
1!
#170000
0!
#171000
1!
1D
0B
1@
1?
0>
1=
0<
09
08
15
14
12
01
1/
0,
1)
1'
1&
#172000
b1110011111100100011110010010100 "
b11100111011001011110011011111101 #
0!
#173000
1!
#174000
0!
#175000
1!
0D
0C
0A
0@
0?
1>
1<
19
04
03
02
11
10
0/
1+
0(
0'
#176000
b1010011001010100111100011101 "
b111010000010001100111010001111 #
0!
#177000
1!
#178000
0!
#179000
1!
0%
1C
1?
1:
18
07
13
12
01
00
0.
1-
1,
0+
0*
0)
1(
0&
#180000
b1111101111101101011011001011101 "
b1010100011111100101001101010001 #
0!
#181000
1!
#182000
0!
#183000
1!
0C
1A
0<
1;
0:
05
14
03
02
11
0-
1+
1)
0(
1'
1&
#184000
b1110111000100010101010110000 "
b101000101100011101010010100001 #
0!
#185000
1!
#186000
0!
#187000
1!
1@
0?
0=
0;
1:
09
08
16
15
04
13
1-
1*
0)
0&
#188000
b1001010000011011001001001101110 "
b10011000111100111011001010101010 #
0!
#189000
1!
#190000
0!
#191000
1!
1%
1D
1B
0A
0@
0>
1=
1<
1;
18
12
01
10
1.
0,
0*
1(
1&
#192000
b10110101101100000101000010101010 "
b11101100100101010000100101010001 #
0!
#193000
1!
#194000
0!
#195000
1!
0%
0D
0B
1A
1?
0;
0:
19
08
17
14
00
0.
1)
0(
0'
0&
#196000
b100001110000101001111001011 "
b10010110000001010101110001001011 #
0!
#197000
1!
#198000
0!
#199000
1!
1%
1D
1C
1B
0A
1@
0?
1;
1:
18
05
04
03
02
1/
1,
1*
1'
#200000
b101000111110101001011100000000 "
b11010101001000111000101000100011 #
0!
#201000
1!
#202000
0!
#203000
1!
0C
0B
1?
1>
0;
08
13
0/
0-
0+
0)
1(
0'
#204000
b100110011101100011110000011111 "
b10010000011011000110101110000010 #
0!
#205000
1!
#206000
0!
#207000
1!
0D
1C
1A
0>
0=
0:
09
18
07
06
12
11
1-
1+
1&
#208000
b10011000111000100111010001001101 "
b110111000100110111100110111011 #
0!
#209000
1!
#210000
0!
#211000
1!
1D
0A
0?
1=
0<
1:
17
16
14
02
10
0-
0*
0(
1'
0&
#212000
b10100100101011000010110000010100 "
b10010001001100001011010110111001 #
0!
#213000
1!
#214000
0!
#215000
1!
0%
0C
1>
0=
1;
0:
08
07
04
12
01
00
1.
1-
0,
0+
1*
1(
0'
1&
#216000
b1100101101110101010011111101100 "
b11101100011001110011011001101000 #
0!
#217000
1!
#218000
0!
#219000
1!
1%
1C
1B
0@
0>
1=
19
18
15
14
11
1/
0.
0-
1,
1+
0*
1)
1'
0&
#220000
b11101101000100111010100101010111 "
b11001100101001101010010010110010 #
0!
#221000
1!
#222000
0!
#223000
1!
0%
0D
0C
1A
09
08
17
04
02
10
1-
0+
0)
0(
1&
#224000
b1010001111000001110001101111000 "
b11101000101100110000001101010001 #
0!
#225000
1!
#226000
0!
#227000
1!
1%
1D
0A
1@
1>
0=
1<
1:
18
05
14
01
0/
0,
1+
1)
0&
#228000
b100000010011000011100100010001 "
b11001000101010001101010111101111 #
0!
#229000
1!
#230000
0!
#231000
1!
0D
0B
1A
0@
1?
1=
0<
0:
08
15
0-
1,
0+
1(
0'
#232000
b10011001011011000000110100111111 "
b10111001101101110110010111000111 #
0!
#233000
1!
#234000
0!
#235000
1!
0%
1D
1C
1B
1@
0?
0>
1:
19
18
04
03
12
00
1.
0)
0(
1'
#236000
b1001001101110010110100110011000 "
b10010011010000000010011001100100 #
0!
#237000
1!
#238000
0!
#239000
1!
1%
0C
0A
1?
1>
0=
1<
09
07
06
10
1/
1-
1+
1*
1(
1&
#240000
b11010111111010011011101011001010 "
b1001100111101110100111011011111 #
0!
#241000
1!
#242000
0!
#243000
1!
1C
0B
0>
0<
0;
0:
08
17
16
05
13
02
11
00
0/
0,
0+
1)
0(
0'
#244000
b10000110101011011100100110001110 "
b10110000001010110111010111100101 #
0!
#245000
1!
#246000
0!
#247000
1!
0%
0D
1A
1>
1<
1:
14
01
10
0.
0-
0*
1(
0&
#248000
b11110000000001101101110011111110 "
b11001000010111101111010000001100 #
0!
#249000
1!
#250000
0!
#251000
1!
0C
0@
0?
1=
1;
19
15
03
12
1/
1,
0(
1'
1&
#252000
b1000111111001110001011100111001 "
b1110000101111100011110100101000 #
0!
#253000
1!
#254000
0!
#255000
1!
1@
1?
0>
0=
0;
09
07
05
04
13
02
11
00
0/
1-
0,
1(
0'
0&
#256000
b10000111010010010110001001001101 "
b100100111011101010000010100011 #
0!
#257000
1!
#258000
0!
#259000
1!
1%
1D
1B
0?
1>
1=
0<
19
15
03
12
10
1/
1.
1,
1+
0)
0(
1'
#260000
b10011000010110101111010001000010 "
b10000000010101010110001111011001 #
0!
#261000
1!
#262000
0!
#263000
1!
0%
0D
0@
0>
0=
1;
0:
09
18
17
05
01
00
0/
0+
1)
1(
0'
1&
#264000
b10101001100111001010111011001011 "
b1010001011010110100010110110010 #
0!
#265000
1!
#266000
0!
#267000
1!
1%
1D
0B
0A
1@
1?
1=
1<
19
15
11
1/
0.
0&
#268000
b100001110010001100010100111001 "
b11001001101010100010000111000010 #
0!
#269000
1!
#270000
0!
#271000
1!
0D
1C
0@
0?
1>
0=
0<
09
08
07
05
14
10
0/
#272000
b1000000100101011111011001000010 "
b10011110011001110000110001111101 #
0!
#273000
1!
#274000
0!
#275000
1!
1D
1A
1?
0>
1<
1:
19
18
04
00
0-
0,
1*
0)
0(
1'
1&
#276000
b1000100000001010010000010100010 "
b110001010111111100111111000100 #
0!
#277000
1!
#278000
0!
#279000
1!
0%
0D
1B
1@
1>
0<
0;
09
06
13
02
10
1/
1(
0'
#280000
b10100110101000011000010101001001 "
b10001100100000110011111100011111 #
0!
#281000
1!
#282000
0!
#283000
1!
0C
0B
0?
1<
1;
0:
19
08
15
03
00
1.
1,
1+
0*
1)
#284000
b1110100000000011110000111001001 "
b1100111110011010000010010110000 #
0!
#285000
1!
#286000
0!
#287000
1!
1D
1B
0A
0>
09
16
14
13
12
10
0/
0.
1-
0+
1*
0(
#288000
b1011010110111111010011001111110 "
b11111011000000100110101000001000 #
0!
#289000
1!
#290000
0!
#291000
1!
1%
0D
0B
1A
0@
1?
0;
1:
17
06
05
03
01
0-
0*
0)
1'
0&
#292000
b1001000100011100111000000100101 "
b11101000100001011001001010010 #
0!
#293000
1!
#294000
0!
#295000
1!
0%
1D
1C
0?
1>
0<
1;
19
07
16
04
13
11
1-
0,
1*
1)
1&
#296000
b10001110100101111111001100000111 "
b10010011001111000101111101001110 #
0!
#297000
1!
#298000
0!
#299000
1!
0D
0C
1B
0A
1=
0:
18
06
14
03
01
00
1/
1(
0&
#300000
b11010111010010100011001100111111 "
b10011110101000100011101100001100 #
0!
#301000
1!
#302000
0!
#303000
1!
1C
0B
1A
0=
1<
09
08
15
02
0/
1.
0-
1+
0*
1&
#304000
b10001100100001001011001010101010 "
b10110001100000010110101000011101 #
0!
#305000
1!
#306000
0!
#307000
1!
1B
0>
1=
0<
16
05
1/
0.
0+
1*
0'
0&
#308000
b11101110111111110101101101101010 "
b10110100001111000000010100010000 #
0!
#309000
1!
#310000
0!
#311000
1!
0C
0B
0A
1@
1>
0;
1:
18
17
06
04
11
0/
1'
1&
#312000
b110101110110000111011010010111 "
b10000001010100100110101011011111 #
0!
#313000
1!
#314000
0!
#315000
1!
1%
1C
1A
0>
0=
19
13
1/
1+
0)
#316000
b111100111010010111100101010 "
b10000001110101110011100111011100 #
0!
#317000
1!
#318000
0!
#319000
1!
0C
0@
1?
1>
1=
1<
1;
0:
08
07
16
15
03
10
0/
1-
1,
0(
0'
#320000
b110111001000101100110000000010 "
b11011010011101100010110110001101 #
0!
#321000
1!
#322000
0!
#323000
1!
1B
0>
0;
05
14
13
12
01
00
0,
1)
1(
0&
#324000
b1011001101011001111111110100101 "
b1110011011000010111011010110010 #
0!
#325000
1!
#326000
0!
#327000
1!
0%
1C
0B
0A
1@
0?
1>
0=
0<
1;
09
17
03
02
0-
0+
0*
0(
1'
#328000
b110111110101101100000001010111 "
b1100101111110001111111110010 #
0!
#329000
1!
#330000
0!
#331000
1!
1D
0C
1B
1A
0@
1?
0;
1:
18
04
13
12
1-
1*
1&
#332000
b100111111000011111100101110000 "
b1010110011011010101111010000001 #
0!
#333000
1!
#334000
0!
#335000
1!
1C
0B
0A
1=
1<
1;
0:
06
14
0-
1,
1+
0*
0)
1(
0'
0&
